{
    "inputMessageMetadata": {},
    "outputMessageMetadata": {
        "messagePayload": {
            "connectorName": "#_custom_mule_metadata_type_#",
            "typeId": "Flight_Pojo"
        }
    },
    "id": "62abf243-0618-4edf-bd1c-0201bd0a3cda",
    "version": "5.2.0.0"
}