{
    "inputMessageMetadata": {
        "messagePayload": {
            "connectorName": "#_custom_mule_metadata_type_#",
            "typeId": "flights_xml"
        }
    },
    "outputMessageMetadata": {},
    "id": "97fdec99-87b6-4d73-a771-6e8d7362d87a",
    "version": "5.2.0.0"
}